{
  "data": [
    {
      "id": "1",
      "comercio": "Comercio 01",
      "cuit": "11-11111111-1",
      "concepto1": 1,
      "concepto2": 1,
      "concepto3": 1,
      "concepto4": 1,
      "concepto5": 1,
      "concepto6": 1,
      "balanceActual": 1000000,
      "activo": 1,
      "ultimaVenta": "28 noviembre 2021"
    },
    {
      "id": "2",
      "comercio": "Comercio 02",
      "cuit": "22-22222222-2",
      "concepto1": 2,
      "concepto2": 2,
      "concepto3": 2,
      "concepto4": 2,
      "concepto5": 2,
      "concepto6": 2,
      "balanceActual": 200000,
      "activo": 1,
      "ultimaVenta": "25 noviembre 2021"
    },
    {
      "id": "3",
      "comercio": "Comercio 03",
      "cuit": "33-33333333-3",
      "concepto1": 3,
      "concepto2": 3,
      "concepto3": 3,
      "concepto4": 3,
      "concepto5": 3,
      "concepto6": 3,
      "balanceActual": 300000,
      "activo": 1,
      "ultimaVenta": "18 noviembre 2021"
    },
    {
      "id": "4",
      "comercio": "Comercio 04",
      "cuit": "44-44444444-4",
      "concepto1": 4,
      "concepto2": 4,
      "concepto3": 4,
      "concepto4": 4,
      "concepto5": 4,
      "concepto6": 4,
      "balanceActual": 400000,
      "activo": 1,
      "ultimaVenta": "05 noviembre 2021"
    },
    {
      "id": "5",
      "comercio": "Comercio 05",
      "cuit": "55-55555555-5",
      "concepto1": 5,
      "concepto2": 5,
      "concepto3": 5,
      "concepto4": 5,
      "concepto5": 5,
      "concepto6": 5,
      "balanceActual": 5000000,
      "activo": 1,
      "ultimaVenta": "07 noviembre 2021"
    },
    {
      "id": "6",
      "comercio": "Comercio 06",
      "cuit": "66-66666666-6",
      "concepto1": 6,
      "concepto2": 6,
      "concepto3": 6,
      "concepto4": 6,
      "concepto5": 6,
      "concepto6": 6,
      "balanceActual": 6000000,
      "activo": 1,
      "ultimaVenta": "26 noviembre 2021"
    },
    {
      "id": "7",
      "comercio": "Comercio 07",
      "cuit": "77-77777777-7",
      "concepto1": 7,
      "concepto2": 7,
      "concepto3": 7,
      "concepto4": 7,
      "concepto5": 7,
      "concepto6": 7,
      "balanceActual": 700000,
      "activo": 1,
      "ultimaVenta": "30 noviembre 2021"
    },
    {
      "id": "8",
      "comercio": "Comercio 08",
      "cuit": "88-88888888-8",
      "concepto1": 8,
      "concepto2": 8,
      "concepto3": 8,
      "concepto4": 8,
      "concepto5": 8,
      "concepto6": 8,
      "balanceActual": 8000000,
      "activo": 1,
      "ultimaVenta": "19 noviembre 2021"
    },
    {
      "id": "9",
      "comercio": "Comercio 09",
      "cuit": "99-99999999-9",
      "concepto1": 9,
      "concepto2": 9,
      "concepto3": 9,
      "concepto4": 9,
      "concepto5": 9,
      "concepto6": 9,
      "balanceActual": 9000000,
      "activo": 1,
      "ultimaVenta": "23 noviembre 2021"
    },
    {
      "id": "10",
      "comercio": "Comercio 10",
      "cuit": "10-10101010-1",
      "concepto1": 10,
      "concepto2": 10,
      "concepto3": 10,
      "concepto4": 10,
      "concepto5": 10,
      "concepto6": 10,
      "balanceActual": 10000000,
      "activo": 0,
      "ultimaVenta": "28 noviembre 2021"
    }
  ],
  "page": 1,
  "pages": 100,
  "rowsPerPage": 10,
  "total": 1000
}